<?xml version="1.0" encoding="UTF-8"?>
<svg width="322px" height="177px" viewBox="0 0 322 177" version="1.1" xmlns="http://www.w3.org/2000/svg" xmlns:xlink="http://www.w3.org/1999/xlink">
    <!-- Generator: Sketch 52.6 (67491) - http://www.bohemiancoding.com/sketch -->
    <title>icons/coops/certificates</title>
    <desc>Created with Sketch.</desc>
    <g id="icons/coops/certificates" stroke="none" stroke-width="1" fill="none" fill-rule="evenodd">
        <rect id="Rectangle-4" stroke="#000000" stroke-width="4" fill="#FFFFFF" fill-rule="nonzero" x="34" y="60" width="60.4357977" height="81.4474708" rx="4"></rect>
        <path d="M43,78 L85,78 C85.5522847,78 86,78.4477153 86,79 L86,80 C86,80.5522847 85.5522847,81 85,81 L43,81 C42.4477153,81 42,80.5522847 42,80 L42,79 C42,78.4477153 42.4477153,78 43,78 Z M43,88.858417 L85,88.858417 C85.5522847,88.858417 86,89.3061323 86,89.858417 L86,90.858417 C86,91.4107018 85.5522847,91.858417 85,91.858417 L43,91.858417 C42.4477153,91.858417 42,91.4107018 42,90.858417 L42,89.858417 C42,89.3061323 42.4477153,88.858417 43,88.858417 Z M43,99.716834 L85,99.716834 C85.5522847,99.716834 86,100.164549 86,100.716834 L86,101.716834 C86,102.269119 85.5522847,102.716834 85,102.716834 L43,102.716834 C42.4477153,102.716834 42,102.269119 42,101.716834 L42,100.716834 C42,100.164549 42.4477153,99.716834 43,99.716834 Z M43,110.575251 L53.7536232,110.575251 C54.3059079,110.575251 54.7536232,111.022966 54.7536232,111.575251 L54.7536232,112.575251 C54.7536232,113.127536 54.3059079,113.575251 53.7536232,113.575251 L43,113.575251 C42.4477153,113.575251 42,113.127536 42,112.575251 L42,111.575251 C42,111.022966 42.4477153,110.575251 43,110.575251 Z" id="Combined-Shape" fill="#000000" fill-rule="nonzero"></path>
        <path d="M81.9281699,133.457761 L83.2893103,155.576292 C83.3102973,155.917332 83.1557031,156.245481 82.8793701,156.44645 C82.4327175,156.771288 81.8073006,156.672538 81.4824623,156.225886 L75.5,148 L69.5175377,156.225886 C69.3165682,156.502219 68.9884192,156.656813 68.6473793,156.635826 C68.0961374,156.601903 67.6767672,156.127534 67.7106897,155.576292 L69.100902,132.985342 C71.0596155,134.259653 73.3976293,135 75.9085603,135 C78.0908812,135 80.1425831,134.440754 81.9281705,133.457757 Z M75.4085603,132 C69.8857128,132 65.4085603,127.522847 65.4085603,122 C65.4085603,116.477153 69.8857128,112 75.4085603,112 C80.9314078,112 85.4085603,116.477153 85.4085603,122 C85.4085603,127.522847 80.9314078,132 75.4085603,132 Z" id="sigel" fill="#EC6B06" fill-rule="nonzero"></path>
        <path d="M96.3759225,39.858559 L123,65.5446055 C121.895936,69.734528 119.101876,74.106621 114.617821,78.6608846 C110.806458,82.5319233 106.127092,85.2644814 100.579724,86.858559 L100.579724,54.8876287 L72.4292103,54.8876287 C68.9627794,64.360497 67.2295639,69.0969311 67.2295639,69.0969311 C67.2295639,69.0969311 63.6116933,75.3818148 56.5799329,73.1957683 C51.6441631,71.6613272 52.6563846,67.730652 54.6181587,63.358559 C56.5799329,58.986466 60.5034811,48.602745 61.9047484,44.230652 C63.3060156,39.858559 69.5015068,39.858559 72.4292103,39.858559 C74.3810127,39.858559 82.3632501,39.858559 96.3759225,39.858559 Z M109.377853,31.1226446 L130.958047,51.9623957 C132.547169,53.4969926 132.59137,56.0292668 131.056773,57.6183884 L128.278139,60.4957476 C126.743543,62.0848692 124.211268,62.1290702 122.622147,60.5944733 L101.041953,39.7547222 C99.4528312,38.2201253 99.4086302,35.6878511 100.943227,34.0987295 L103.721861,31.2213703 C105.256457,29.6322487 107.788732,29.5880477 109.377853,31.1226446 Z" id="hand" fill="#EC6B06" fill-rule="nonzero"></path>
    </g>
</svg>