<?xml version="1.0" encoding="UTF-8"?>
<svg width="322px" height="85px" viewBox="0 0 322 85" version="1.1" xmlns="http://www.w3.org/2000/svg" xmlns:xlink="http://www.w3.org/1999/xlink">
    <!-- Generator: Sketch 52.6 (67491) - http://www.bohemiancoding.com/sketch -->
    <title>icons/team/locals</title>
    <desc>Created with Sketch.</desc>
    <g id="icons/team/locals" stroke="none" stroke-width="1" fill="none" fill-rule="evenodd">
        <path d="M74,29.6333333 C83.53638,29.6333333 91.2666667,37.3981302 91.2666667,46.9770833 C91.2666667,64.3208333 74,85.1333333 74,85.1333333 C74,85.1333333 56.7333333,64.3208333 56.7333333,46.9770833 C56.7333333,37.3981302 64.46362,29.6333333 74,29.6333333 Z M74,57.6001302 C79.8413133,57.6001302 84.5758333,52.844474 84.5758333,46.9770833 C84.5758333,41.1096927 79.8413133,36.3540365 74,36.3540365 C68.1586867,36.3540365 63.4241667,41.1096927 63.4241667,46.9770833 C63.4241667,52.844474 68.1586867,57.6001302 74,57.6001302 Z M80.6908333,46.9770833 C80.6908333,50.6886458 77.6950667,53.6977865 74,53.6977865 C70.3049333,53.6977865 67.3091667,50.6886458 67.3091667,46.9770833 C67.3091667,43.2655208 70.3049333,40.2563802 74,40.2563802 C77.6950667,40.2563802 80.6908333,43.2655208 80.6908333,46.9770833 Z" id="Combined-Shape" fill="#EC6B06" fill-rule="nonzero"></path>
        <path d="M117.214792,50.9297505 C111.029032,50.9297505 106.014792,55.9663755 106.014792,62.1797505 C106.014792,73.4297505 117.214792,86.9297505 117.214792,86.9297505 C117.214792,86.9297505 128.414792,73.4297505 128.414792,62.1797505 C128.414792,55.9663755 123.400552,50.9297505 117.214792,50.9297505 Z M117.214792,69.0703755 C113.425832,69.0703755 110.354792,65.9856255 110.354792,62.1797505 C110.354792,58.3738755 113.425832,55.2891255 117.214792,55.2891255 C121.003752,55.2891255 124.074792,58.3738755 124.074792,62.1797505 C124.074792,65.9856255 121.003752,69.0703755 117.214792,69.0703755 Z M112.874792,62.1797505 C112.874792,59.7722505 114.817992,57.8203755 117.214792,57.8203755 C119.611592,57.8203755 121.554792,59.7722505 121.554792,62.1797505 C121.554792,64.5872505 119.611592,66.5391255 117.214792,66.5391255 C114.817992,66.5391255 112.874792,64.5872505 112.874792,62.1797505 Z" id="Shape" fill="#000000" fill-rule="nonzero" transform="translate(117.214792, 68.929751) scale(-1, 1) rotate(-15.000000) translate(-117.214792, -68.929751) "></path>
        <path d="M31.0621447,49.9297505 C24.8763847,49.9297505 19.8621447,54.9663755 19.8621447,61.1797505 C19.8621447,72.4297505 31.0621447,85.9297505 31.0621447,85.9297505 C31.0621447,85.9297505 42.2621447,72.4297505 42.2621447,61.1797505 C42.2621447,54.9663755 37.2479047,49.9297505 31.0621447,49.9297505 Z M31.0621447,68.0703755 C27.2731847,68.0703755 24.2021447,64.9856255 24.2021447,61.1797505 C24.2021447,57.3738755 27.2731847,54.2891255 31.0621447,54.2891255 C34.8511047,54.2891255 37.9221447,57.3738755 37.9221447,61.1797505 C37.9221447,64.9856255 34.8511047,68.0703755 31.0621447,68.0703755 Z M26.7221447,61.1797505 C26.7221447,58.7722505 28.6653447,56.8203755 31.0621447,56.8203755 C33.4589447,56.8203755 35.4021447,58.7722505 35.4021447,61.1797505 C35.4021447,63.5872505 33.4589447,65.5391255 31.0621447,65.5391255 C28.6653447,65.5391255 26.7221447,63.5872505 26.7221447,61.1797505 Z" id="Shape" fill="#000000" fill-rule="nonzero" transform="translate(31.062145, 67.929751) scale(-1, 1) rotate(-345.000000) translate(-31.062145, -67.929751) "></path>
    </g>
</svg>