<?xml version="1.0" encoding="UTF-8"?>
<svg width="322px" height="177px" viewBox="0 0 322 177" version="1.1" xmlns="http://www.w3.org/2000/svg" xmlns:xlink="http://www.w3.org/1999/xlink">
    <!-- Generator: Sketch 52.6 (67491) - http://www.bohemiancoding.com/sketch -->
    <title>icons/downloads/selbstverstaendnis</title>
    <desc>Created with Sketch.</desc>
    <g id="icons/downloads/selbstverstaendnis" stroke="none" stroke-width="1" fill="none" fill-rule="evenodd">
        <rect id="Rectangle-4" fill="#C1C1C1" fill-rule="nonzero" x="32" y="120" width="99" height="6" rx="3"></rect>
        <rect id="Rectangle-4-Copy" stroke="#000000" stroke-width="4" fill="#FFFFFF" fill-rule="nonzero" x="34" y="43" width="95" height="70" rx="4"></rect>
        <path d="M70.8913237,64.242407 C66.2648024,63.6578082 62.7688746,64.443261 61.5814157,66.5 C60.3939569,68.556739 61.4616988,71.9770277 64.2812368,75.6914133 C65.7754856,74.104686 67.5107842,72.5386526 69.4523366,71.0442783 C69.7757266,68.6156575 70.2643019,66.3298281 70.8913237,64.242407 Z M73.8642052,64.7744154 C73.4945714,65.9721274 73.1695767,67.2559992 72.8988363,68.6121927 C73.659906,68.1198613 74.4441336,67.6399496 75.25,67.1746825 C76.0558664,66.7094153 76.8635959,66.2702101 77.6705023,65.8572701 C76.360634,65.4136413 75.0862711,65.0531591 73.8642052,64.7744154 Z M69.0693386,80.7549226 C69.023502,79.8496512 69,78.9305343 69,78 C69,77.0694657 69.023502,76.1503488 69.0693386,75.2450774 C68.0302107,76.1576422 67.0808424,77.0810317 66.2284104,78 C67.0808424,78.9189683 68.0302107,79.8423578 69.0693386,80.7549226 Z M72.2806575,83.3227899 C73.6644975,84.3321782 75.1579124,85.3080491 76.75,86.2272413 C78.3420876,87.1464336 79.9339241,87.9518334 81.5,88.6455797 C83.0660705,87.9518361 84.6579097,87.1464351 86.25,86.2272413 C87.8420876,85.3080491 89.3355025,84.3321782 90.7193425,83.3227899 C90.9015783,81.6196586 91,79.8383862 91,78 C91,76.1616138 90.9015783,74.3803414 90.719342,72.6772052 C89.3355025,71.6678218 87.8420876,70.6919509 86.25,69.7727587 C84.6579124,68.8535664 83.0660759,68.0481666 81.5,67.3544203 C79.9339295,68.0481639 78.3420903,68.8535649 76.75,69.7727587 C75.1579124,70.6919509 73.6644975,71.6678218 72.2806575,72.6772101 C72.0984217,74.3803414 72,76.1616138 72,78 C72,79.8383862 72.0984217,81.6196586 72.280658,83.3227948 Z M93.9306614,80.7549226 C94.9697893,79.8423578 95.9191576,78.9189683 96.7715896,78 C95.9191576,77.0810317 94.9697893,76.1576422 93.9306614,75.2450774 C93.976498,76.1503488 94,77.0694657 94,78 C94,78.9305343 93.976498,79.8496512 93.9306614,80.7549226 Z M89.1357948,91.2255846 C89.5054286,90.0278726 89.8304233,88.7440008 90.1011637,87.3878073 C89.340094,87.8801387 88.5558664,88.3600504 87.75,88.8253175 C86.9441336,89.2905847 86.1364041,89.7297899 85.3294977,90.1427299 C86.639366,90.5863587 87.9137289,90.9468409 89.1357948,91.2255846 Z M92.1086763,91.757593 C96.7351976,92.3421918 100.231125,91.556739 101.418584,89.5 C102.606043,87.443261 101.538301,84.0229723 98.7187632,80.3085867 C97.2245144,81.895314 95.4892158,83.4613474 93.5476634,84.9557217 C93.2242734,87.3843425 92.7356981,89.6701719 92.1086763,91.757593 Z M74.8899132,61.9338203 C77.0111837,62.4345141 79.2350577,63.1543101 81.5,64.0885566 C83.7649423,63.1543101 85.9888163,62.4345141 88.1100868,61.9338203 C86.3031036,57.634836 83.8749177,55 81.5,55 C79.1250823,55 76.6968964,57.634836 74.8899132,61.9338203 Z M71.8940804,61.3620592 C74.1870139,55.6408989 77.6390893,52 81.5,52 C85.3609107,52 88.8129861,55.6408989 91.1059196,61.3620592 C97.2070565,60.4872177 102.086205,61.6563532 104.01666,65 C105.947116,68.3436468 104.520043,73.1536812 100.711839,78 C104.520043,82.8463188 105.947116,87.6563532 104.01666,91 C102.086205,94.3436468 97.2070565,95.5127823 91.1059196,94.6379408 C88.8129861,100.359101 85.3609107,104 81.5,104 C77.6390893,104 74.1870139,100.359101 71.8940804,94.6379408 C65.7929435,95.5127823 60.9137949,94.3436468 58.9833395,91 C57.0528841,87.6563532 58.4799574,82.8463188 62.2881608,78 C58.4799574,73.1536812 57.0528841,68.3436468 58.9833395,65 C60.9137949,61.6563532 65.7929435,60.4872177 71.8940804,61.3620592 Z M74.8899132,94.0661797 C76.6968964,98.365164 79.1250823,101 81.5,101 C83.8749177,101 86.3031036,98.365164 88.1100868,94.0661797 C85.9888163,93.5654859 83.7649423,92.8456899 81.5,91.9114434 C79.2350577,92.8456899 77.0111837,93.5654859 74.8899132,94.0661797 Z M90.1011637,68.6121927 C89.8304233,67.2559992 89.5054286,65.9721274 89.1357948,64.7744154 C87.9137289,65.0531591 86.639366,65.4136413 85.3294977,65.8572701 C86.1364041,66.2702101 86.9441336,66.7094153 87.75,67.1746825 C88.5558664,67.6399496 89.340094,68.1198613 90.1011637,68.6121927 Z M93.5476634,71.0442783 C95.4892158,72.5386526 97.2245144,74.104686 98.7187632,75.6914133 C101.538301,71.9770277 102.606043,68.556739 101.418584,66.5 C100.231125,64.443261 96.7351976,63.6578082 92.1086763,64.242407 C92.7356981,66.3298281 93.2242734,68.6156575 93.5476634,71.0442783 Z M72.8988363,87.3878073 C73.1695767,88.7440008 73.4945714,90.0278726 73.8642052,91.2255846 C75.0862711,90.9468409 76.360634,90.5863587 77.6705023,90.1427299 C76.8635959,89.7297899 76.0558664,89.2905847 75.25,88.8253175 C74.4441336,88.3600504 73.659906,87.8801387 72.8988363,87.3878073 Z M69.4523366,84.9557217 C67.5107842,83.4613474 65.7754856,81.895314 64.2812368,80.3085867 C61.4616988,84.0229723 60.3939569,87.443261 61.5814157,89.5 C62.7688746,91.556739 66.2648024,92.3421918 70.8913237,91.757593 C70.2643019,89.6701719 69.7757266,87.3843425 69.4523366,84.9557217 Z" id="Combined-Shape" fill="#000000" fill-rule="nonzero"></path>
        <circle id="Oval" fill="#EC6B06" fill-rule="nonzero" cx="81.5" cy="78" r="6"></circle>
    </g>
</svg>