<svg id="Ebene_1" xmlns="http://www.w3.org/2000/svg" viewBox="0 0 286.3 83.1">
    <style>
        .st0{fill:none}.st1{fill:#ec6b06}.st2{fill:#9a9999}
    </style>
    <title>
        brand evergy
    </title>
    <g id="Styles">
        <g id="icons" transform="translate(-100 -166)">
            <g id="brand-evergy" transform="translate(80 146)">
                <path id="Rectangle-2-_x5B_20_x5D_" class="st0" d="M3.2 4.1h320v115.3H3.2z"/>
                <g transform="translate(20 20)" id="Evergy-Logo">
                    <path id="rotor" class="st1" d="M282.9 61.1s-41.7 12.6-83.3 17.2c-37.8 4.2-51-10.9-54.8-17.2h138.1zm-141.2-5H3.2S45 43.4 86.8 38.8c37.9-4.2 51 10.9 54.9 17.3z"/>
                    <path id="Combined-Shape" class="st2" d="M267.5 46.3c-1.7 6.2-2.9 8.8-9.4 8.8H252l.9-6.1h1.7c2.1 0 2.7-.5 2.8-2.7l1.1-35.2h7.4l-2.6 28.8h.6l5.9-28.8h7.4l-9.7 35.2zm-95.1-35.2h7.4L177 40.5h.5l5.9-29.4h7.4l-11.3 44h-8.8l1.7-44zm59 10.2l-1.1 7.8H223l1.4-9.4c.1-.6.1-.9.1-1 0-.7-.4-1.1-1-1.1-1.1 0-1.4.7-1.6 2.1L216.7 55H209l6.5-43.7h7.7l-.3 1.8c1.8-1.4 3.3-2.1 4.7-2.1 2.9 0 4.5 1.8 4.5 5.2-.1 1.4-.4 3.1-.7 5.1zM156 4.3h14.6l-1.1 7H164l-1.5 11.1h5.5l-1.1 7h-5.5l-2.7 18.4h5.4l-1.1 7h-14.5L156 4.3zm42.8 30.1L197 46.8c-.1.5-.1.8-.1.9 0 1 .3 1.4 1.1 1.4 1.2 0 1.4-.9 1.6-2.2l1.2-8.1h7.9l-1.3 8c-1.1 7-3.1 8.3-10.5 8.3-5.7 0-8.1-.9-8.1-5.2 0-.5.1-1.6.3-3.2l4.1-27.3c1.1-6.9 3-8.4 10.4-8.4 5.7 0 8.2.9 8.2 5.2 0 .5-.1 1.6-.3 3.2l-2.3 14.9h-10.4zm1-6.1h2.7l1.3-9c.1-.4.1-.8.1-1.1 0-.7-.5-1.1-1.1-1.1-1.3 0-1.5.7-1.7 2.2l-1.3 9zM247 13.2l.3-1.8h7.7l-5.2 36.1c-.9 6.2-3.4 7.5-9 7.5H231l.9-6.1h7.8c.4 0 .7-.1.8-.1 1.3 0 1.6-.7 1.8-1.8l.6-4.1c-1.8 1.4-3.4 2-4.9 2-3.2 0-4.8-1.8-4.8-5.4 0-1.1.2-2.7.5-4.9l1.8-13.5c.9-6.3 2.2-10.2 7.4-10.2 1.4.2 2.7.9 4.1 2.3zm-.9 6.6c.1-.5.1-.9.1-.9 0-.8-.4-1.2-1.1-1.2-1.1 0-1.4.8-1.6 2.1l-2.3 16.5c-.1.6-.1.9-.1.9 0 .9.3 1.3 1.1 1.3 1.1 0 1.4-.8 1.6-2.1l2.3-16.6z"/>
                </g>
            </g>
        </g>
    </g>
</svg>
